<?xml version="1.0" encoding="UTF-8"?>
<svg width="194px" height="61px" viewBox="0 0 194 61" version="1.1" xmlns="http://www.w3.org/2000/svg" xmlns:xlink="http://www.w3.org/1999/xlink">
    <!-- Generator: Sketch 46.2 (44496) - http://www.bohemiancoding.com/sketch -->
    <title>logo/BOMA NYC logo white</title>
    <desc>Created with Sketch.</desc>
    <defs></defs>
    <g id="Symbols" stroke="none" stroke-width="1" fill="none" fill-rule="evenodd">
        <g id="logo/BOMA-NYC-logo-white" fill="#FFFFFF">
            <g id="BOMA-NYC-logo-white">
                <path d="M15.24,18.12 L15.24,11.64 L16.38,11.64 C18.78,11.64 21.84,11.4 21.84,14.76 C21.84,17.88 19.14,18.12 16.74,18.12 L15.24,18.12 Z M0,46 L22.38,46 C30.3,46 38.94,42.82 38.94,33.52 C38.94,28.12 35.82,24.52 30.94,22.78 L30.94,22.42 C34.94,21.16 36.88,17.26 36.88,13.3 C36.84,2.82 27.9,0.72 19.14,0.72 L0,0.72 L0,46 Z M15.24,27.7 L16.86,27.7 C19.5,27.7 23.7,27.64 23.7,31.42 C23.7,35.2 19.8,35.2 17.1,35.2 L15.24,35.2 L15.24,27.7 Z" id="Shape"></path>
                <path d="M65,14.88 C70.22,14.88 73.46,18.88 73.46,23.7 C73.46,28.86 69.98,32.4 65,32.4 C60.02,32.4 56.54,28.86 56.54,23.7 C56.54,18.9 59.78,14.88 65,14.88 L65,14.88 Z M65,0 C51.26,0 40,9.24 40,23.46 C40,38 51.2,46.68 65,46.68 C78.8,46.68 90,38 90,23.46 C90,9.24 78.74,0 65,0 L65,0 Z" id="Shape"></path>
                <path d="M96.62,0.72 L113.54,0.72 L119.78,24.48 L120.2,24.48 C120.458724,22.4588516 120.839419,20.4551957 121.34,18.48 L126.44,0.72 L143.18,0.72 L150.62,46 L134.72,46 L132.5,21.18 L132.2,21.18 C131.933012,22.7008092 131.572325,24.2036717 131.12,25.68 L124.58,46 L115,46 L109.1,26.82 C108.592536,24.9750677 108.25776,23.0869365 108.1,21.18 L107.56,21.18 C107.44,22.98 107.32,24.84 107.14,26.64 L105.2,46 L89.3,46 L96.62,0.72 Z" id="Shape"></path>
                <path d="M164,29.58 L167,15.78 L167.6,15.78 C167.9,17.7 168.2,19.68 168.68,21.6 L170.6,29.6 L164,29.58 Z M161.1,40.32 L173.52,40.32 L175,46 L192.4,46 L176.28,0.72 L158.1,0.72 L142.38,46 L159.78,46 L161.1,40.32 Z" id="Shape"></path>
                <rect id="Rectangle-path" x="0" y="50.01" width="114.9" height="9.33"></rect>
                <polygon id="Shape" points="120 59.87 120 50.45 122.45 50.45 127 56.21 127 50.45 129.44 50.45 129.44 59.87 127 59.87 122.48 54.11 122.48 59.87"></polygon>
                <path d="M134.4,57 C134.4,57.9733333 134.86,58.46 135.78,58.46 C136.232214,58.4794716 136.658583,58.2490021 136.89,57.86 L139.08,57.86 C138.667861,59.3075689 137.264235,60.2404927 135.77,60.06 C135.263143,60.0674269 134.758889,59.9862047 134.28,59.82 C133.850167,59.6718525 133.455343,59.4370001 133.12,59.13 C132.798788,58.8271902 132.546421,58.4588706 132.38,58.05 C132.199936,57.6056048 132.111501,57.1294141 132.12,56.65 C132.11419,56.1587199 132.198937,55.670573 132.37,55.21 C132.52581,54.7999795 132.767947,54.4282476 133.08,54.12 C133.400796,53.8139783 133.782397,53.578885 134.2,53.43 C134.675159,53.2627173 135.176327,53.1814469 135.68,53.19 C136.17713,53.1816805 136.671693,53.2629786 137.14,53.43 C137.554467,53.5827957 137.930077,53.825235 138.24,54.14 C138.549452,54.4619963 138.784928,54.8476301 138.93,55.27 C139.095933,55.7558627 139.177115,56.2666329 139.17,56.78 L139.17,57 L134.4,57 Z M137,55.73 C136.935339,55.4326049 136.773493,55.1652068 136.54,54.97 C136.031702,54.5949272 135.338298,54.5949272 134.83,54.97 C134.600869,55.1669286 134.451519,55.4407374 134.41,55.74 L137,55.73 Z" id="Shape"></path>
                <polygon id="Shape" points="142.9 53.46 144.44 56.84 146.04 53.47 147.47 53.47 149.07 56.94 150.68 53.47 153.19 53.47 149.84 59.88 148.33 59.88 146.73 56.37 145.21 59.88 143.67 59.88 140.38 53.47"></polygon>
                <polygon id="Shape" points="162.7 55.35 159.26 50.45 162.18 50.45 163.94 53 165.68 50.42 168.6 50.42 165.15 55.32 165.15 59.85 162.7 59.85"></polygon>
                <path d="M168.94,56.61 C168.937597,56.1507257 169.03662,55.6965848 169.23,55.28 C169.41926,54.8686385 169.691644,54.5009199 170.03,54.2 C170.388081,53.8858431 170.801899,53.6416225 171.25,53.48 C171.743722,53.3021932 172.265269,53.2141397 172.79,53.22 C173.311292,53.2163801 173.829166,53.3043848 174.32,53.48 C174.76744,53.638396 175.181244,53.8792167 175.54,54.19 C175.884874,54.4911979 176.161093,54.8629001 176.35,55.28 C176.545475,55.7170956 176.64439,56.1912058 176.64,56.67 C176.652404,57.617497 176.250671,58.5232218 175.54,59.15 C175.181214,59.4659942 174.763078,59.7073568 174.31,59.86 C173.807832,60.0307615 173.280381,60.1152888 172.75,60.11 C172.229378,60.1158055 171.711697,60.0312171 171.22,59.86 C170.772882,59.7074226 170.361281,59.4659048 170.01,59.15 C169.672544,58.8387846 169.403513,58.4607784 169.22,58.04 C169.026799,57.5884337 168.931374,57.101085 168.94,56.61 L168.94,56.61 Z M171.33,56.61 C171.328865,56.8128396 171.369722,57.013719 171.45,57.2 C171.525289,57.3734622 171.630187,57.5325009 171.76,57.67 C171.890771,57.8034029 172.047265,57.9088665 172.22,57.98 C172.584976,58.1311165 172.995024,58.1311165 173.36,57.98 C173.532735,57.9088665 173.689229,57.8034029 173.82,57.67 C173.95047,57.5330219 174.055449,57.3738604 174.13,57.2 C174.210613,57.0173431 174.251515,56.8196488 174.25,56.62 C174.251012,56.4236261 174.2101,56.2292977 174.13,56.05 C174.055449,55.8761396 173.95047,55.7169781 173.82,55.58 C173.689229,55.4465971 173.532735,55.3411335 173.36,55.27 C172.995024,55.1188835 172.584976,55.1188835 172.22,55.27 C172.047265,55.3411335 171.890771,55.4465971 171.76,55.58 C171.631448,55.7147406 171.526634,55.8702713 171.45,56.04 C171.36298,56.2244326 171.31855,56.426074 171.32,56.63 L171.33,56.61 Z" id="Shape"></path>
                <path d="M178.94,53.46 L181.2,53.46 L181.2,54.46 C181.421217,54.0990734 181.726597,53.7971249 182.09,53.58 C182.461475,53.3690485 182.882882,53.2619698 183.31,53.27 L183.5,53.27 L183.74,53.27 L183.74,55.43 C183.430115,55.2737478 183.087011,55.1948338 182.74,55.2 C182.295322,55.1668942 181.860142,55.3402288 181.56,55.67 C181.272811,56.066533 181.134707,56.5516654 181.17,57.04 L181.17,59.79 L178.91,59.79 L178.94,53.46 Z" id="Shape"></path>
                <polygon id="Shape" points="188 49.5 188 55.78 190.38 53.47 193.48 53.47 190.27 56.47 193.67 59.92 190.5 59.92 188 57.26 188 59.87 185.74 59.87 185.74 49.5"></polygon>
            </g>
        </g>
    </g>
</svg>